ISSS624 - Take-home Exercise 1: Geospatial Analytics for Social Good
…
The two fields #lat_deg and #long_deg are in decimal degree format. As a best guess, we will assume that the data is in wgs84 Geographic Coordinate System. We will then convert wpd data frame in to a simple feature data frame by using the following code chunk.

wpd_sf <- st_as_sf(wpd,
                   coords = c("#lon_deg", "#lat_deg"),
                   crs=4326) %>% 
    st_transform(crs = 26391)
wpd_sf

Simple feature collection with 95008 features and 68 fields
Geometry type: POINT
Dimension:     XY
Bounding box:  xmin: 32536.82 ymin: 33461.24 xmax: 1292096 ymax: 1091052
Projected CRS: Minna / Nigeria West Belt
# A tibble: 95,008 × 69
   row_id `#source`      #repo…¹ #stat…² #wate…³ #wate…⁴ #wate…⁵ #wate…⁶ #faci…⁷
 *  <dbl> <chr>          <chr>   <chr>   <chr>   <chr>   <chr>   <chr>   <chr>  
 1 429068 GRID3          08/29/… Unknown <NA>    <NA>    Tapsta… Tapsta… Improv…
 2 222071 Federal Minis… 08/16/… Yes     Boreho… Well    Mechan… Mechan… Improv…
 3 160612 WaterAid       12/04/… Yes     Boreho… Well    Hand P… Hand P… Improv…
 4 160669 WaterAid       12/04/… Yes     Boreho… Well    <NA>    <NA>    Improv…
 5 160642 WaterAid       12/04/… Yes     Boreho… Well    Hand P… Hand P… Improv…
 6 160628 WaterAid       12/04/… Yes     Boreho… Well    Hand P… Hand P… Improv…
 7 160632 WaterAid       12/04/… Yes     Boreho… Well    Hand P… Hand P… Improv…
 8 642747 Living Water … 10/03/… Yes     Boreho… Well    Mechan… Mechan… Improv…
 9 642456 Living Water … 10/03/… Yes     Boreho… Well    Hand P… Hand P… Improv…
10 641347 Living Water … 03/28/… Yes     Boreho… Well    Hand P… Hand P… Improv…
# … with 94,998 more rows, 60 more variables: `#clean_country_name` <chr>,
#   `#clean_adm1` <chr>, `#clean_adm2` <chr>, `#clean_adm3` <lgl>,
#   `#clean_adm4` <lgl>, `#install_year` <dbl>, `#installer` <lgl>,
#   `#rehab_year` <lgl>, `#rehabilitator` <lgl>, `#management_clean` <chr>,
#   `#status_clean` <chr>, `#pay` <chr>, `#fecal_coliform_presence` <lgl>,
#   `#fecal_coliform_value` <lgl>, `#subjective_quality` <chr>,
#   `#activity_id` <chr>, `#scheme_id` <lgl>, `#wpdx_id` <chr>, …
…
